{"organizers":[{"id":23311,"author":"27","status":"publish","date":"2023-02-16 10:44:09","date_utc":"2023-02-16 15:44:09","modified":"2023-02-16 10:44:09","modified_utc":"2023-02-16 15:44:09","url":"https:\/\/auburndalefl.com\/organizer\/polk-regional-water-cooperative\/","organizer":"Polk Regional Water Cooperative","slug":"polk-regional-water-cooperative","website":"https:\/\/prwcwater.org\/","global_id":"auburndalefl.com?id=23311","global_id_lineage":["auburndalefl.com?id=23311"]}],"rest_url":"https:\/\/auburndalefl.com\/wp-json\/tribe\/events\/v1\/organizers\/?page=1&per_page=1&status=publish","next_rest_url":"https:\/\/auburndalefl.com\/wp-json\/tribe\/events\/v1\/organizers\/?per_page=1&status=publish&page=2","total":7,"total_pages":7}