{"venues":[{"id":30196,"author":"30","status":"publish","date":"2026-04-08 15:08:40","date_utc":"2026-04-08 19:08:40","modified":"2026-04-08 15:08:40","modified_utc":"2026-04-08 19:08:40","url":"https:\/\/auburndalefl.com\/venue\/w-park-street-downtown-auburndale\/","venue":"W. Park Street, Downtown Auburndale","slug":"w-park-street-downtown-auburndale","show_map":true,"show_map_link":true,"global_id":"auburndalefl.com?id=30196","global_id_lineage":["auburndalefl.com?id=30196"]}],"rest_url":"https:\/\/auburndalefl.com\/wp-json\/tribe\/events\/v1\/venues\/?page=1&per_page=1&status=publish","next_rest_url":"https:\/\/auburndalefl.com\/wp-json\/tribe\/events\/v1\/venues\/?per_page=1&status=publish&page=2","total":30,"total_pages":30}