HTTP/1.1 200 OK
Date: Sat, 18 Apr 2026 04:15:39 GMT
Server: Apache
X-Powered-By: PHP/7.4.33
X-UA-Compatible: IE=edge
X-Robots-Tag: noindex
X-Content-Type-Options: nosniff
Access-Control-Expose-Headers: X-WP-Total, X-WP-TotalPages, Link
Access-Control-Allow-Headers: Authorization, X-WP-Nonce, Content-Disposition, Content-MD5, Content-Type
X-WP-Total: 39
X-WP-TotalPages: 20
Link: <https://townofdundee.com/wp-json/wp/v2/tribe_events?_fields=id%2Cslug%2Cdate%2Ctitle%2Clink&per_page=2&page=2>; rel="next"
Allow: GET
Vary: Origin
Transfer-Encoding: chunked
Content-Type: application/json; charset=UTF-8

